{
	"max_particles": 10,
	
	"spawn_counter": 0,

	"active_counter": 500,
	
	"alpha_start_min": 100,
	"alpha_start_max": 255,
	"alpha_change_speed_min": 1,
	"alpha_change_speed_max": 10,
	
	"transform_start_min": {
		"translation": [ 20.0, 10.0 ],
		"scale": [ 0.5, 0.5 ],
		"rotation": 90.0
	},	
	"transform_start_max": {
		"translation": [ -20.0, -10.0 ],
		"scale": [ 0.5, 0.5 ],
		"rotation": 0.0
	},
	
	"transform_change_min": {
		"translation": [ 0.05, 0.05 ],
		"scale": [ 0.0, 0.0 ],
		"rotation": [ 1.0 ]
	},
	"transform_change_max": {
		"translation": [ -0.05, -0.05 ],
		"scale": [ 0.0, 0.0 ],
		"rotation": [ -1.0 ]
	},
	
	"initial_particles": []
}